WORLDDIM: 3
number of vertices: 16
number of elements: 15
  
vertex coordinates:
 0.0 0.0 0.0
 1.0 0.0 0.0
 1.0 1.0 0.0
 0.0 1.0 0.0
-1.0 1.0 0.0 
-1.0 0.0 0.0
-1.0 -1.0 0.0
 0.0 -1.0 0.0
 0.0 0.0 1.0
 1.0 0.0 1.0
 1.0 1.0 1.0
 0.0 1.0 1.0
 -1.0 1.0 1.0 
-1.0 0.0 1.0
-1.0 -1.0 1.0
 0.0 -1.0 1.0
   
element vertices:
10 3 8 11
10 1 9  8
 1 3 0  8
 1 3 10 2
 1 3 8 10
11 3 8 12
 0 3 5  8
 4 3 12 5
 13 5 12 8
 12 5 3 8
 0 5 7 8
 6 5 14 7
 13 5 8 14 
 15 7 14 8
 7 5 14 8
  
element boundaries:
 0 1 1 0
 1 1 0 1
 0 1 0 1
 1 1 1 0
 0 0 0 0
 0 1 1 0
 0 0 0 1
 0 1 1 1
 0 1 0 1 
 0 0 0 0
 0 1 0 1
 0 1 1 1
 0 1 1 0
 0 1 1 1
 0 0 0 0